AWSTATS DATA FILE 7.0 (build 1.971)
# If you remove this file, all statistics for date 201312 will be lost/reset.
# Last config file used to build this data file was /etc/awstats/awstats.shtorykiseya.com.conf.

# Position (offset in bytes) in this file for beginning of each section for
# direct I/O access. If you made changes somewhere in this file, you should
# also remove completely the MAP section (AWStats will rewrite it at next
# update).
BEGIN_MAP 27
POS_GENERAL 1996                
POS_TIME 2667                
POS_VISITOR 5994                
POS_DAY 6333                
POS_DOMAIN 3225                
POS_LOGIN 3451                
POS_ROBOT 3606                
POS_WORMS 3843                
POS_EMAILSENDER 3974                
POS_EMAILRECEIVER 4117                
POS_SESSION 6469                
POS_SIDER 6616                
POS_FILETYPES 4252                
POS_DOWNLOADS 4334                
POS_OS 4382                
POS_BROWSER 4466                
POS_SCREENSIZE 4607                
POS_UNKNOWNREFERER 4681                
POS_UNKNOWNREFERERBROWSER 4808                
POS_ORIGIN 4890                
POS_SEREFERRALS 5020                
POS_PAGEREFS 5164                
POS_SEARCHWORDS 5312                
POS_KEYWORDS 5464                
POS_MISC 2331                
POS_ERRORS 5523                
POS_CLUSTER 3307                
POS_SIDER_404 5609                
END_MAP

# LastLine    = Date of last record processed - Last record line number in last log - Last record offset in last log - Last record signature value
# FirstTime   = Date of first visit for history file
# LastTime    = Date of last visit for history file
# LastUpdate  = Date of last update - Nb of parsed records - Nb of parsed old records - Nb of parsed new records - Nb of parsed corrupted - Nb of parsed dropped
# TotalVisits = Number of visits
# TotalUnique = Number of unique visitors
# MonthHostsKnown   = Number of hosts known
# MonthHostsUnKnown = Number of hosts unknown
BEGIN_GENERAL 8
LastLine 20140101095230 1 0 8726290426725
FirstTime 20131227112322
LastTime 20131230220111
LastUpdate 20140102000232 1 0 0 0 0
TotalVisits 14                  
TotalUnique 7                   
MonthHostsKnown 0                   
MonthHostsUnknown 7                   
END_GENERAL

# Misc ID - Pages - Hits - Bandwidth
BEGIN_MISC 10
QuickTimeSupport 0 0 0
JavaEnabled 0 0 0
JavascriptDisabled 0 0 0
PDFSupport 0 0 0
WindowsMediaPlayerSupport 0 0 0
AddToFavourites 0 0 0
RealPlayerSupport 0 0 0
TotalMisc 0 0 0
DirectorSupport 0 0 0
FlashSupport 0 0 0
END_MISC

# Hour - Pages - Hits - Bandwidth - Not viewed Pages - Not viewed Hits - Not viewed Bandwidth
BEGIN_TIME 24
0 0 0 0 1 1 1188
1 1 1 1188 0 2 504
2 0 0 0 1 1 1188
3 1 1 1188 1 1 1188
4 0 0 0 3 3 3564
5 0 0 0 2 3 2492
6 0 0 0 1 1 1188
7 1 1 1188 2 3 2495
8 0 0 0 0 0 0
9 0 0 0 4 4 2708
10 0 0 0 1 1 1188
11 2 2 1563 0 1 0
12 2 2 2449 0 0 0
13 1 1 1188 2 2 2376
14 0 0 0 0 0 0
15 0 0 0 0 0 0
16 2 2 1951 2 2 2376
17 1 1 1188 0 0 0
18 0 0 0 2 2 2376
19 1 1 763 0 0 0
20 1 1 744 1 1 1188
21 0 0 0 1 1 1188
22 1 1 1188 1 1 1188
23 1 1 1188 0 0 0
END_TIME

# Domain - Pages - Hits - Bandwidth
# The 10 first Pages must be first (order not required for others)
BEGIN_DOMAIN 1
ip 15 15 15786
END_DOMAIN

# Cluster ID - Pages - Hits - Bandwidth
BEGIN_CLUSTER 0
END_CLUSTER

# Login - Pages - Hits - Bandwidth - Last visit
# The 10 first Pages must be first (order not required for others)
BEGIN_LOGIN 0
END_LOGIN

# Robot ID - Hits - Bandwidth - Last visit - Hits on robots.txt
# The 10 first Hits must be first (order not required for others)
BEGIN_ROBOT 3
python 17 20196 20131229163704 0
no_user_agent 3 3564 20131230041005 0
googlebot 2 1600 20131230071043 0
END_ROBOT

# Worm ID - Hits - Bandwidth - Last visit
# The 5 first Hits must be first (order not required for others)
BEGIN_WORMS 0
END_WORMS

# EMail - Hits - Bandwidth - Last visit
# The 20 first Hits must be first (order not required for others)
BEGIN_EMAILSENDER 0
END_EMAILSENDER

# EMail - Hits - Bandwidth - Last visit
# The 20 first hits must be first (order not required for others)
BEGIN_EMAILRECEIVER 0
END_EMAILRECEIVER

# Files type - Hits - Bandwidth - Bandwidth without compression - Bandwidth after compression
BEGIN_FILETYPES 1
html 15 15786 0 0
END_FILETYPES

# Downloads - Hits - Bandwidth
BEGIN_DOWNLOADS 0
END_DOWNLOADS

# OS ID - Hits
BEGIN_OS 5
macosx 1
winxp 3
Unknown 8
winvista 1
win7 2
END_OS

# Browser ID - Hits
BEGIN_BROWSER 6
mozilla 8
chrome31.0.1650.16 1
chrome11.0.696.71 2
firefox26.0 1
msie7.0 2
firefox3.6.13 1
END_BROWSER

# Screen size - Hits
BEGIN_SCREENSIZE 0
END_SCREENSIZE

# Unknown referer OS - Last visit date
BEGIN_UNKNOWNREFERER 1
Mozilla/4.0_(compatible) 20131230220111
END_UNKNOWNREFERER

# Unknown referer Browser - Last visit date
BEGIN_UNKNOWNREFERERBROWSER 0
END_UNKNOWNREFERERBROWSER

# Origin - Pages - Hits 
BEGIN_ORIGIN 6
From0 7 7
From1 0 0
From2 0 0
From3 0 0
From4 8 8
From5 0 0
END_ORIGIN

# Search engine referers ID - Pages - Hits
BEGIN_SEREFERRALS 0
END_SEREFERRALS

# External page referers - Pages - Hits
# The 10 first Pages must be first (order not required for others)
BEGIN_PAGEREFS 0
END_PAGEREFS

# Search keyphrases - Number of search
# The 10 first number of search must be first (order not required for others)
BEGIN_SEARCHWORDS 0
END_SEARCHWORDS

# Search keywords - Number of search
# The 10 first number of search must be first (order not required for others)
BEGIN_KEYWORDS 0
END_KEYWORDS

# Errors - Hits - Bandwidth
BEGIN_ERRORS 1
404 6 3035
END_ERRORS

# URL with 404 errors - Hits - Last URL referer
BEGIN_SIDER_404 4
/wp-admin/ 1 -
/robots.txt 3 -
/blog/wp-admin/ 1 -
/wordpress/wp-admin/ 1 -
END_SIDER_404

# Host - Pages - Hits - Bandwidth - Last visit date - [Start date of last visit] - [Last page of last visit]
# [Start date of last visit] and [Last page of last visit] are saved only if session is not finished
# The 10 first Hits must be first (order not required for others)
BEGIN_VISITOR 7
23.239.196.71 4 4 4752 20131229160033
184.22.42.196 4 4 4752 20131230220111
38.100.25.115 2 2 2449 20131227124358
192.237.216.89 2 2 1526 20131230190739
188.115.140.246 1 1 800 20131227112322
199.30.228.141 1 1 763 20131227165503
192.96.204.42 1 1 744 20131230200205
END_VISITOR

# Date - Pages - Hits - Bandwidth - Visits
BEGIN_DAY 4
20131227 6 6 6388 5
20131228 3 3 3564 3
20131229 2 2 2376 2
20131230 4 4 3458 4
END_DAY

# Session range - Number of visits
BEGIN_SESSION 1
0s-30s 14
END_SESSION

# URL - Pages - Bandwidth - Entry - Exit
# The 10 first Pages must be first (order not required for others)
BEGIN_SIDER 1
/ 15 15786 14 14
END_SIDER
